%YAML 1.1
%TAG !u! tag:unity3d.com,2011:
--- !u!74 &7400000
AnimationClip:
  m_ObjectHideFlags: 0
  m_CorrespondingSourceObject: {fileID: 0}
  m_PrefabInstance: {fileID: 0}
  m_PrefabAsset: {fileID: 0}
  m_Name: Move
  serializedVersion: 6
  m_Legacy: 0
  m_Compressed: 0
  m_UseHighQualityCurve: 1
  m_RotationCurves: []
  m_CompressedRotationCurves: []
  m_EulerCurves: []
  m_PositionCurves: []
  m_ScaleCurves: []
  m_FloatCurves: []
  m_PPtrCurves:
  - curve:
    - time: 0
      value: {fileID: -8671963948673107625, guid: 0eb4f8f10bb233a479629ce3f7855c61, type: 3}
    - time: 0.1
      value: {fileID: 401193994761245511, guid: 0eb4f8f10bb233a479629ce3f7855c61, type: 3}
    - time: 0.18333334
      value: {fileID: -9013755850933448812, guid: 0eb4f8f10bb233a479629ce3f7855c61, type: 3}
    - time: 0.3
      value: {fileID: 7347701764406087256, guid: 0eb4f8f10bb233a479629ce3f7855c61, type: 3}
    - time: 0.38333333
      value: {fileID: -8076678732201085572, guid: 0eb4f8f10bb233a479629ce3f7855c61, type: 3}
    - time: 0.5
      value: {fileID: -7249258177382773888, guid: 0eb4f8f10bb233a479629ce3f7855c61, type: 3}
    - time: 0.5833333
      value: {fileID: 9115299420309090552, guid: 0eb4f8f10bb233a479629ce3f7855c61, type: 3}
    - time: 0.7
      value: {fileID: -6738556349507020774, guid: 0eb4f8f10bb233a479629ce3f7855c61, type: 3}
    - time: 0.78333336
      value: {fileID: 5690913825604094114, guid: 0eb4f8f10bb233a479629ce3f7855c61, type: 3}
    - time: 0.8833333
      value: {fileID: -5502023366997931854, guid: 0eb4f8f10bb233a479629ce3f7855c61, type: 3}
    attribute: m_Sprite
    path: 
    classID: 212
    script: {fileID: 0}
  m_SampleRate: 60
  m_WrapMode: 0
  m_Bounds:
    m_Center: {x: 0, y: 0, z: 0}
    m_Extent: {x: 0, y: 0, z: 0}
  m_ClipBindingConstant:
    genericBindings:
    - serializedVersion: 2
      path: 0
      attribute: 0
      script: {fileID: 0}
      typeID: 212
      customType: 23
      isPPtrCurve: 1
    pptrCurveMapping:
    - {fileID: -8671963948673107625, guid: 0eb4f8f10bb233a479629ce3f7855c61, type: 3}
    - {fileID: 401193994761245511, guid: 0eb4f8f10bb233a479629ce3f7855c61, type: 3}
    - {fileID: -9013755850933448812, guid: 0eb4f8f10bb233a479629ce3f7855c61, type: 3}
    - {fileID: 7347701764406087256, guid: 0eb4f8f10bb233a479629ce3f7855c61, type: 3}
    - {fileID: -8076678732201085572, guid: 0eb4f8f10bb233a479629ce3f7855c61, type: 3}
    - {fileID: -7249258177382773888, guid: 0eb4f8f10bb233a479629ce3f7855c61, type: 3}
    - {fileID: 9115299420309090552, guid: 0eb4f8f10bb233a479629ce3f7855c61, type: 3}
    - {fileID: -6738556349507020774, guid: 0eb4f8f10bb233a479629ce3f7855c61, type: 3}
    - {fileID: 5690913825604094114, guid: 0eb4f8f10bb233a479629ce3f7855c61, type: 3}
    - {fileID: -5502023366997931854, guid: 0eb4f8f10bb233a479629ce3f7855c61, type: 3}
  m_AnimationClipSettings:
    serializedVersion: 2
    m_AdditiveReferencePoseClip: {fileID: 0}
    m_AdditiveReferencePoseTime: 0
    m_StartTime: 0
    m_StopTime: 0.9
    m_OrientationOffsetY: 0
    m_Level: 0
    m_CycleOffset: 0
    m_HasAdditiveReferencePose: 0
    m_LoopTime: 1
    m_LoopBlend: 0
    m_LoopBlendOrientation: 0
    m_LoopBlendPositionY: 0
    m_LoopBlendPositionXZ: 0
    m_KeepOriginalOrientation: 0
    m_KeepOriginalPositionY: 1
    m_KeepOriginalPositionXZ: 0
    m_HeightFromFeet: 0
    m_Mirror: 0
  m_EditorCurves: []
  m_EulerEditorCurves: []
  m_HasGenericRootTransform: 0
  m_HasMotionFloatCurves: 0
  m_Events: []
